{
  "locked": false,
  "version": -9998,
  "projectFileDependencyGroups": {
    "": [
      "Kestrel >= 1.0.0-beta4",
      "Microsoft.AspNet.Diagnostics >= 1.0.0-beta4",
      "Microsoft.AspNet.Hosting >= 1.0.0-beta4",
      "Microsoft.AspNet.Server.IIS >= 1.0.0-beta4",
      "Microsoft.AspNet.Server.WebListener >= 1.0.0-beta4",
      "Microsoft.AspNet.StaticFiles >= 1.0.0-beta4"
    ],
    "DNX,Version=v4.5.1": []
  },
  "libraries": {
    "Kestrel/1.0.0-beta4": {
      "serviceable": false,
      "sha": "8f2aCgtDh5ONWS7K2EYy23s3nnPvZS7rPimYHJ1DAvF7HG5GSmSC+SkKx6ZtBOjhU9agneWjDwj5jGjdPWfjsA==",
      "frameworks": {
        "DNX,Version=v4.5.1": {
          "dependencies": {
            "Microsoft.AspNet.Hosting": "1.0.0-beta4",
            "Microsoft.AspNet.Server.Kestrel": "1.0.0-beta4"
          },
          "frameworkAssemblies": [
            "mscorlib",
            "System",
            "System.Core",
            "Microsoft.CSharp"
          ],
          "runtimeAssemblies": [
            "lib/dnx451/Kestrel.dll"
          ],
          "compileAssemblies": [
            "lib/dnx451/Kestrel.dll"
          ]
        }
      },
      "files": [
        "Kestrel.1.0.0-beta4.nupkg",
        "Kestrel.1.0.0-beta4.nupkg.sha512",
        "Kestrel.nuspec",
        "lib/dnx451/Kestrel.dll",
        "lib/dnx451/Kestrel.xml",
        "lib/dnxcore50/Kestrel.dll",
        "lib/dnxcore50/Kestrel.xml"
      ]
    },
    "Microsoft.AspNet.DataProtection.Interfaces/1.0.0-beta4": {
      "serviceable": true,
      "sha": "y0pyHIooDn15lJZEETy9+u9ynw+4ZRngRjHguIQuBKm30j1+dwQRqqyS6L1SnFCzAS0mq6+5GauzA8qWxHc60g==",
      "frameworks": {
        "DNX,Version=v4.5.1": {
          "dependencies": {
            "Microsoft.Framework.Runtime.Interfaces": "1.0.0-beta4"
          },
          "frameworkAssemblies": [
            "mscorlib",
            "System",
            "System.Core",
            "Microsoft.CSharp"
          ],
          "runtimeAssemblies": [
            "lib/dnx451/Microsoft.AspNet.DataProtection.Interfaces.dll"
          ],
          "compileAssemblies": [
            "lib/dnx451/Microsoft.AspNet.DataProtection.Interfaces.dll"
          ]
        }
      },
      "files": [
        "Microsoft.AspNet.DataProtection.Interfaces.1.0.0-beta4.nupkg",
        "Microsoft.AspNet.DataProtection.Interfaces.1.0.0-beta4.nupkg.sha512",
        "Microsoft.AspNet.DataProtection.Interfaces.nuspec",
        "lib/dnx451/Microsoft.AspNet.DataProtection.Interfaces.dll",
        "lib/dnx451/Microsoft.AspNet.DataProtection.Interfaces.xml",
        "lib/dnxcore50/Microsoft.AspNet.DataProtection.Interfaces.dll",
        "lib/dnxcore50/Microsoft.AspNet.DataProtection.Interfaces.xml",
        "lib/net451/Microsoft.AspNet.DataProtection.Interfaces.dll",
        "lib/net451/Microsoft.AspNet.DataProtection.Interfaces.xml"
      ]
    },
    "Microsoft.AspNet.Diagnostics/1.0.0-beta4": {
      "serviceable": true,
      "sha": "OiWNg+pzKkX5Rv+vzG+7z5N5/hIzE63Lo8C8o7cvowOXlqYxMFgaecRCaZQvAVMDNzBhUH0FsW+Uku93mLCuCw==",
      "frameworks": {
        "DNX,Version=v4.5.1": {
          "dependencies": {
            "Microsoft.AspNet.Diagnostics.Interfaces": "1.0.0-beta4",
            "Microsoft.AspNet.Hosting": "1.0.0-beta4",
            "Microsoft.AspNet.WebUtilities": "1.0.0-beta4",
            "Microsoft.Framework.OptionsModel": "1.0.0-beta4",
            "Microsoft.Framework.WebEncoders.Core": "1.0.0-beta4"
          },
          "frameworkAssemblies": [
            "mscorlib",
            "System",
            "System.Core",
            "Microsoft.CSharp"
          ],
          "runtimeAssemblies": [
            "lib/dnx451/Microsoft.AspNet.Diagnostics.dll"
          ],
          "compileAssemblies": [
            "lib/dnx451/Microsoft.AspNet.Diagnostics.dll"
          ]
        }
      },
      "files": [
        "Microsoft.AspNet.Diagnostics.1.0.0-beta4.nupkg",
        "Microsoft.AspNet.Diagnostics.1.0.0-beta4.nupkg.sha512",
        "Microsoft.AspNet.Diagnostics.nuspec",
        "lib/dnx451/Microsoft.AspNet.Diagnostics.dll",
        "lib/dnx451/Microsoft.AspNet.Diagnostics.xml",
        "lib/dnxcore50/Microsoft.AspNet.Diagnostics.dll",
        "lib/dnxcore50/Microsoft.AspNet.Diagnostics.xml"
      ]
    },
    "Microsoft.AspNet.Diagnostics.Interfaces/1.0.0-beta4": {
      "serviceable": true,
      "sha": "25/Rs8HIc+Za9lQcDx2dTw5DffY1y2SvKaPLGJcNufJX0/prnJi0psdEagPbqVBJppRxbFZc3u8MdUILzHJqsA==",
      "frameworks": {
        "DNX,Version=v4.5.1": {
          "dependencies": {},
          "frameworkAssemblies": [
            "mscorlib",
            "System",
            "System.Core",
            "Microsoft.CSharp"
          ],
          "runtimeAssemblies": [
            "lib/dnx451/Microsoft.AspNet.Diagnostics.Interfaces.dll"
          ],
          "compileAssemblies": [
            "lib/dnx451/Microsoft.AspNet.Diagnostics.Interfaces.dll"
          ]
        }
      },
      "files": [
        "Microsoft.AspNet.Diagnostics.Interfaces.1.0.0-beta4.nupkg",
        "Microsoft.AspNet.Diagnostics.Interfaces.1.0.0-beta4.nupkg.sha512",
        "Microsoft.AspNet.Diagnostics.Interfaces.nuspec",
        "lib/dnx451/Microsoft.AspNet.Diagnostics.Interfaces.dll",
        "lib/dnx451/Microsoft.AspNet.Diagnostics.Interfaces.xml",
        "lib/dnxcore50/Microsoft.AspNet.Diagnostics.Interfaces.dll",
        "lib/dnxcore50/Microsoft.AspNet.Diagnostics.Interfaces.xml"
      ]
    },
    "Microsoft.AspNet.FeatureModel/1.0.0-beta4": {
      "serviceable": true,
      "sha": "Xewac6SajTjfxmPKZSSYWLsRu/ZI/hqx775ozDjHsSIl2xsl2bq6ZJu6PCIoEj16+Ws/Gl+cfbdNrhCa5LslHQ==",
      "frameworks": {
        "DNX,Version=v4.5.1": {
          "dependencies": {},
          "frameworkAssemblies": [
            "mscorlib",
            "System",
            "System.Core",
            "Microsoft.CSharp"
          ],
          "runtimeAssemblies": [
            "lib/dnx451/Microsoft.AspNet.FeatureModel.dll"
          ],
          "compileAssemblies": [
            "lib/dnx451/Microsoft.AspNet.FeatureModel.dll"
          ]
        }
      },
      "files": [
        "Microsoft.AspNet.FeatureModel.1.0.0-beta4.nupkg",
        "Microsoft.AspNet.FeatureModel.1.0.0-beta4.nupkg.sha512",
        "Microsoft.AspNet.FeatureModel.nuspec",
        "lib/dnx451/Microsoft.AspNet.FeatureModel.dll",
        "lib/dnx451/Microsoft.AspNet.FeatureModel.xml",
        "lib/dnxcore50/Microsoft.AspNet.FeatureModel.dll",
        "lib/dnxcore50/Microsoft.AspNet.FeatureModel.xml"
      ]
    },
    "Microsoft.AspNet.FileProviders/1.0.0-beta4": {
      "serviceable": false,
      "sha": "4/1d/nfCWZPZg9pod618gHGgPZTtDF3ol81NgAsY7i6G3K3gKNX0yekvhUG0LDR7J7p4eamFDb8oZC8E0OnFFg==",
      "frameworks": {
        "DNX,Version=v4.5.1": {
          "dependencies": {
            "Microsoft.AspNet.FileProviders.Interfaces": "1.0.0-beta4"
          },
          "frameworkAssemblies": [
            "mscorlib",
            "System",
            "System.Core",
            "Microsoft.CSharp"
          ],
          "runtimeAssemblies": [
            "lib/dnx451/Microsoft.AspNet.FileProviders.dll"
          ],
          "compileAssemblies": [
            "lib/dnx451/Microsoft.AspNet.FileProviders.dll"
          ]
        }
      },
      "files": [
        "Microsoft.AspNet.FileProviders.1.0.0-beta4.nupkg",
        "Microsoft.AspNet.FileProviders.1.0.0-beta4.nupkg.sha512",
        "Microsoft.AspNet.FileProviders.nuspec",
        "lib/dnx451/Microsoft.AspNet.FileProviders.dll",
        "lib/dnx451/Microsoft.AspNet.FileProviders.xml",
        "lib/dnxcore50/Microsoft.AspNet.FileProviders.dll",
        "lib/dnxcore50/Microsoft.AspNet.FileProviders.xml",
        "lib/net45/Microsoft.AspNet.FileProviders.dll",
        "lib/net45/Microsoft.AspNet.FileProviders.xml"
      ]
    },
    "Microsoft.AspNet.FileProviders.Interfaces/1.0.0-beta4": {
      "serviceable": false,
      "sha": "nB1GlK79h0x/hEm7ro/TiRK58kv4VukyqSuAtMQGp7S8xkat9uPJJQFQh1MUysCU/gJlbK+5+PIq9srM3RS6Sw==",
      "frameworks": {
        "DNX,Version=v4.5.1": {
          "dependencies": {
            "Microsoft.Framework.Caching.Interfaces": "1.0.0-beta4"
          },
          "frameworkAssemblies": [
            "mscorlib",
            "System",
            "System.Core",
            "Microsoft.CSharp"
          ],
          "runtimeAssemblies": [
            "lib/dnx451/Microsoft.AspNet.FileProviders.Interfaces.dll"
          ],
          "compileAssemblies": [
            "lib/dnx451/Microsoft.AspNet.FileProviders.Interfaces.dll"
          ]
        }
      },
      "files": [
        "Microsoft.AspNet.FileProviders.Interfaces.1.0.0-beta4.nupkg",
        "Microsoft.AspNet.FileProviders.Interfaces.1.0.0-beta4.nupkg.sha512",
        "Microsoft.AspNet.FileProviders.Interfaces.nuspec",
        "lib/dnx451/Microsoft.AspNet.FileProviders.Interfaces.dll",
        "lib/dnx451/Microsoft.AspNet.FileProviders.Interfaces.xml",
        "lib/dnxcore50/Microsoft.AspNet.FileProviders.Interfaces.dll",
        "lib/dnxcore50/Microsoft.AspNet.FileProviders.Interfaces.xml",
        "lib/net45/Microsoft.AspNet.FileProviders.Interfaces.dll",
        "lib/net45/Microsoft.AspNet.FileProviders.Interfaces.xml"
      ]
    },
    "Microsoft.AspNet.Hosting/1.0.0-beta4": {
      "serviceable": true,
      "sha": "2rElL/y+eqvmUre+gVjruvslfTbhhe8o5wyUo/qicCr/UnL9GrDGi4ikIV9ulS9tqiRTTByUT+CGC1TnSeiCnw==",
      "frameworks": {
        "DNX,Version=v4.5.1": {
          "dependencies": {
            "Microsoft.AspNet.Hosting.Interfaces": "1.0.0-beta4",
            "Microsoft.Framework.Runtime.Interfaces": "1.0.0-beta4",
            "Microsoft.AspNet.FileProviders": "1.0.0-beta4",
            "Microsoft.AspNet.Http.Core": "1.0.0-beta4",
            "Microsoft.AspNet.Http.Extensions": "1.0.0-beta4",
            "Microsoft.Framework.Logging": "1.0.0-beta4",
            "Microsoft.Framework.DependencyInjection": "1.0.0-beta4",
            "Newtonsoft.Json": "6.0.6"
          },
          "frameworkAssemblies": [
            "mscorlib",
            "System",
            "System.Core",
            "Microsoft.CSharp"
          ],
          "runtimeAssemblies": [
            "lib/dnx451/Microsoft.AspNet.Hosting.dll"
          ],
          "compileAssemblies": [
            "lib/dnx451/Microsoft.AspNet.Hosting.dll"
          ]
        }
      },
      "files": [
        "Microsoft.AspNet.Hosting.1.0.0-beta4.nupkg",
        "Microsoft.AspNet.Hosting.1.0.0-beta4.nupkg.sha512",
        "Microsoft.AspNet.Hosting.nuspec",
        "lib/dnx451/Microsoft.AspNet.Hosting.dll",
        "lib/dnx451/Microsoft.AspNet.Hosting.xml",
        "lib/dnxcore50/Microsoft.AspNet.Hosting.dll",
        "lib/dnxcore50/Microsoft.AspNet.Hosting.xml"
      ]
    },
    "Microsoft.AspNet.Hosting.Interfaces/1.0.0-beta4": {
      "serviceable": true,
      "sha": "+0M9gAQ9rPnsWu4saQ4ZkC6yjwahEiiXM/XoA1PEO7wsZcuQ/yX7Oo794k+bn/HyzstDcyRV4UDc8nUwTuBFqg==",
      "frameworks": {
        "DNX,Version=v4.5.1": {
          "dependencies": {
            "Microsoft.AspNet.Http": "1.0.0-beta4",
            "Microsoft.AspNet.FeatureModel": "1.0.0-beta4",
            "Microsoft.AspNet.FileProviders.Interfaces": "1.0.0-beta4",
            "Microsoft.Framework.ConfigurationModel": "1.0.0-beta4"
          },
          "frameworkAssemblies": [
            "mscorlib",
            "System",
            "System.Core",
            "Microsoft.CSharp"
          ],
          "runtimeAssemblies": [
            "lib/dnx451/Microsoft.AspNet.Hosting.Interfaces.dll"
          ],
          "compileAssemblies": [
            "lib/dnx451/Microsoft.AspNet.Hosting.Interfaces.dll"
          ]
        }
      },
      "files": [
        "Microsoft.AspNet.Hosting.Interfaces.1.0.0-beta4.nupkg",
        "Microsoft.AspNet.Hosting.Interfaces.1.0.0-beta4.nupkg.sha512",
        "Microsoft.AspNet.Hosting.Interfaces.nuspec",
        "lib/dnx451/Microsoft.AspNet.Hosting.Interfaces.dll",
        "lib/dnx451/Microsoft.AspNet.Hosting.Interfaces.xml",
        "lib/dnxcore50/Microsoft.AspNet.Hosting.Interfaces.dll",
        "lib/dnxcore50/Microsoft.AspNet.Hosting.Interfaces.xml"
      ]
    },
    "Microsoft.AspNet.Http/1.0.0-beta4": {
      "serviceable": true,
      "sha": "XTs0bSEcxRP74nSZ8SFCLfcswV1CzwpNWbQDhKOmOFdJXP56sJtF6cDJBcvV/emUha75gz9zXRZErHVFH45MAg==",
      "frameworks": {
        "DNX,Version=v4.5.1": {
          "dependencies": {
            "Microsoft.Framework.WebEncoders.Core": "1.0.0-beta4"
          },
          "frameworkAssemblies": [
            "mscorlib",
            "System",
            "System.Core",
            "Microsoft.CSharp"
          ],
          "runtimeAssemblies": [
            "lib/dnx451/Microsoft.AspNet.Http.dll"
          ],
          "compileAssemblies": [
            "lib/dnx451/Microsoft.AspNet.Http.dll"
          ]
        }
      },
      "files": [
        "Microsoft.AspNet.Http.1.0.0-beta4.nupkg",
        "Microsoft.AspNet.Http.1.0.0-beta4.nupkg.sha512",
        "Microsoft.AspNet.Http.nuspec",
        "lib/dnx451/Microsoft.AspNet.Http.dll",
        "lib/dnx451/Microsoft.AspNet.Http.xml",
        "lib/dnxcore50/Microsoft.AspNet.Http.dll",
        "lib/dnxcore50/Microsoft.AspNet.Http.xml"
      ]
    },
    "Microsoft.AspNet.Http.Core/1.0.0-beta4": {
      "serviceable": true,
      "sha": "U6jZxua+mNfNTjm9lW/1W4sKd1aYUWiTp7KBY7hPs49IU4p7NMewvDKV34/svcaDYDOqhtuduyGJCdw62GrvqQ==",
      "frameworks": {
        "DNX,Version=v4.5.1": {
          "dependencies": {
            "Microsoft.AspNet.FeatureModel": "1.0.0-beta4",
            "Microsoft.AspNet.Http": "1.0.0-beta4",
            "Microsoft.AspNet.Http.Interfaces": "1.0.0-beta4",
            "Microsoft.AspNet.WebUtilities": "1.0.0-beta4",
            "Microsoft.Framework.WebEncoders.Core": "1.0.0-beta4",
            "Microsoft.Net.Http.Headers": "1.0.0-beta4"
          },
          "frameworkAssemblies": [
            "mscorlib",
            "System",
            "System.Core",
            "Microsoft.CSharp"
          ],
          "runtimeAssemblies": [
            "lib/dnx451/Microsoft.AspNet.Http.Core.dll"
          ],
          "compileAssemblies": [
            "lib/dnx451/Microsoft.AspNet.Http.Core.dll"
          ]
        }
      },
      "files": [
        "Microsoft.AspNet.Http.Core.1.0.0-beta4.nupkg",
        "Microsoft.AspNet.Http.Core.1.0.0-beta4.nupkg.sha512",
        "Microsoft.AspNet.Http.Core.nuspec",
        "lib/dnx451/Microsoft.AspNet.Http.Core.dll",
        "lib/dnx451/Microsoft.AspNet.Http.Core.xml",
        "lib/dnxcore50/Microsoft.AspNet.Http.Core.dll",
        "lib/dnxcore50/Microsoft.AspNet.Http.Core.xml"
      ]
    },
    "Microsoft.AspNet.Http.Extensions/1.0.0-beta4": {
      "serviceable": true,
      "sha": "nhcRbawpD6g8ZiEfF/KE4N+VnrrPyosDqWqNzJQWZDAto/ntenbve6iNgRRuwatvczdlskwsdasmrHKw92ciWQ==",
      "frameworks": {
        "DNX,Version=v4.5.1": {
          "dependencies": {
            "Microsoft.AspNet.Http": "1.0.0-beta4",
            "Microsoft.AspNet.Http.Interfaces": "1.0.0-beta4",
            "Microsoft.Framework.DependencyInjection.Interfaces": "1.0.0-beta4",
            "Microsoft.Framework.WebEncoders.Core": "1.0.0-beta4",
            "Microsoft.Net.Http.Headers": "1.0.0-beta4"
          },
          "frameworkAssemblies": [
            "mscorlib",
            "System",
            "System.Core",
            "Microsoft.CSharp"
          ],
          "runtimeAssemblies": [
            "lib/dnx451/Microsoft.AspNet.Http.Extensions.dll"
          ],
          "compileAssemblies": [
            "lib/dnx451/Microsoft.AspNet.Http.Extensions.dll"
          ]
        }
      },
      "files": [
        "Microsoft.AspNet.Http.Extensions.1.0.0-beta4.nupkg",
        "Microsoft.AspNet.Http.Extensions.1.0.0-beta4.nupkg.sha512",
        "Microsoft.AspNet.Http.Extensions.nuspec",
        "lib/dnx451/Microsoft.AspNet.Http.Extensions.dll",
        "lib/dnx451/Microsoft.AspNet.Http.Extensions.xml",
        "lib/dnxcore50/Microsoft.AspNet.Http.Extensions.dll",
        "lib/dnxcore50/Microsoft.AspNet.Http.Extensions.xml"
      ]
    },
    "Microsoft.AspNet.Http.Interfaces/1.0.0-beta4": {
      "serviceable": true,
      "sha": "31C78ja91ggo1ywLn83yNpTR0pnhMbPMcKhE72Gx3I5M0F1foDJQTHBOBFS0ebGkn8eiDMWkKGqjYucslaiu5Q==",
      "frameworks": {
        "DNX,Version=v4.5.1": {
          "dependencies": {},
          "frameworkAssemblies": [
            "mscorlib",
            "System",
            "System.Core",
            "Microsoft.CSharp"
          ],
          "runtimeAssemblies": [
            "lib/dnx451/Microsoft.AspNet.Http.Interfaces.dll"
          ],
          "compileAssemblies": [
            "lib/dnx451/Microsoft.AspNet.Http.Interfaces.dll"
          ]
        }
      },
      "files": [
        "Microsoft.AspNet.Http.Interfaces.1.0.0-beta4.nupkg",
        "Microsoft.AspNet.Http.Interfaces.1.0.0-beta4.nupkg.sha512",
        "Microsoft.AspNet.Http.Interfaces.nuspec",
        "lib/dnx451/Microsoft.AspNet.Http.Interfaces.dll",
        "lib/dnx451/Microsoft.AspNet.Http.Interfaces.xml",
        "lib/dnxcore50/Microsoft.AspNet.Http.Interfaces.dll",
        "lib/dnxcore50/Microsoft.AspNet.Http.Interfaces.xml"
      ]
    },
    "Microsoft.AspNet.Loader.IIS/1.0.0-beta4": {
      "serviceable": true,
      "sha": "yuhp/0exkFrwOBLAhX29lXoA1D+ouoq/TZ8aeRNcVILqwJ5hTU6Gf5muGQVGK/PqRQKQDUaHTzRLx/TrhWa91A==",
      "frameworks": {
        "DNX,Version=v4.5.1": {
          "dependencies": {
            "Microsoft.AspNet.DataProtection.Interfaces": "1.0.0-beta4",
            "Microsoft.AspNet.Hosting": "1.0.0-beta4",
            "Microsoft.Framework.Runtime.Interfaces": "1.0.0-beta4",
            "Microsoft.Framework.WebEncoders.Core": "1.0.0-beta4"
          },
          "frameworkAssemblies": [
            "mscorlib",
            "System",
            "System.Core",
            "Microsoft.CSharp"
          ],
          "runtimeAssemblies": [
            "lib/dnx451/Microsoft.AspNet.Loader.IIS.dll"
          ],
          "compileAssemblies": [
            "lib/dnx451/Microsoft.AspNet.Loader.IIS.dll"
          ]
        }
      },
      "files": [
        "Microsoft.AspNet.Loader.IIS.1.0.0-beta4.nupkg",
        "Microsoft.AspNet.Loader.IIS.1.0.0-beta4.nupkg.sha512",
        "Microsoft.AspNet.Loader.IIS.nuspec",
        "lib/dnx451/Microsoft.AspNet.Loader.IIS.dll",
        "lib/dnx451/Microsoft.AspNet.Loader.IIS.xml",
        "lib/dnxcore50/Microsoft.AspNet.Loader.IIS.dll",
        "lib/dnxcore50/Microsoft.AspNet.Loader.IIS.xml"
      ]
    },
    "Microsoft.AspNet.Loader.IIS.Interop/1.0.0-beta4": {
      "serviceable": false,
      "sha": "50FEL0+abeAABvCoPs1A0Vcl65PyBKyzg06aL0H+Y+WZMoLI+Bvd1M9WKDj8nfm6K5Jh033oI7fQbOfscd8wqw==",
      "frameworks": {
        "DNX,Version=v4.5.1": {
          "dependencies": {},
          "frameworkAssemblies": [],
          "runtimeAssemblies": [],
          "compileAssemblies": []
        }
      },
      "files": [
        "Microsoft.AspNet.Loader.IIS.Interop.1.0.0-beta4.nupkg",
        "Microsoft.AspNet.Loader.IIS.Interop.1.0.0-beta4.nupkg.sha512",
        "Microsoft.AspNet.Loader.IIS.Interop.nuspec",
        "InteropAssemblies/amd64/Microsoft.AspNet.Loader.IIS.Interop.dll",
        "InteropAssemblies/x86/Microsoft.AspNet.Loader.IIS.Interop.dll",
        "tools/AspNet.Loader.dll"
      ]
    },
    "Microsoft.AspNet.Server.IIS/1.0.0-beta4": {
      "serviceable": false,
      "sha": "zPKpt9wna/Jw+PxywvKQDSVL5ZlzkE4arxpCcgrrJv2r1bwkWSAWiy6b9sp79aAzYSO9/qlt2FJPD6edeh29bg==",
      "frameworks": {
        "DNX,Version=v4.5.1": {
          "dependencies": {
            "Microsoft.AspNet.Loader.IIS.Interop": "1.0.0-beta4",
            "Microsoft.AspNet.Loader.IIS": "1.0.0-beta4"
          },
          "frameworkAssemblies": [],
          "runtimeAssemblies": [],
          "compileAssemblies": []
        }
      },
      "files": [
        "Microsoft.AspNet.Server.IIS.1.0.0-beta4.nupkg",
        "Microsoft.AspNet.Server.IIS.1.0.0-beta4.nupkg.sha512",
        "Microsoft.AspNet.Server.IIS.nuspec"
      ]
    },
    "Microsoft.AspNet.Server.Kestrel/1.0.0-beta4": {
      "serviceable": false,
      "sha": "q1UkQB67PymuTryvL3i35vyZAt6ZToQdS+3rYlgqmpDMg4JdduhhtdvWj6H3R6TlBaOnF8zJn2TvlQlzQEkfzw==",
      "frameworks": {
        "DNX,Version=v4.5.1": {
          "dependencies": {
            "Microsoft.Framework.Runtime.Interfaces": "1.0.0-beta4"
          },
          "frameworkAssemblies": [
            "mscorlib",
            "System",
            "System.Core",
            "Microsoft.CSharp"
          ],
          "runtimeAssemblies": [
            "lib/dnx451/Microsoft.AspNet.Server.Kestrel.dll"
          ],
          "compileAssemblies": [
            "lib/dnx451/Microsoft.AspNet.Server.Kestrel.dll"
          ]
        }
      },
      "files": [
        "Microsoft.AspNet.Server.Kestrel.1.0.0-beta4.nupkg",
        "Microsoft.AspNet.Server.Kestrel.1.0.0-beta4.nupkg.sha512",
        "Microsoft.AspNet.Server.Kestrel.nuspec",
        "lib/dnx451/Microsoft.AspNet.Server.Kestrel.dll",
        "lib/dnx451/Microsoft.AspNet.Server.Kestrel.xml",
        "lib/dnxcore50/Microsoft.AspNet.Server.Kestrel.dll",
        "lib/dnxcore50/Microsoft.AspNet.Server.Kestrel.xml",
        "native/darwin/universal/libuv.dylib",
        "native/windows/amd64/libuv.dll",
        "native/windows/x86/libuv.dll"
      ]
    },
    "Microsoft.AspNet.Server.WebListener/1.0.0-beta4": {
      "serviceable": true,
      "sha": "7i7WcLxrwlrrATJKipf7TXQxLpndK2RvBVG/PpnLRBEKG5Vlm9L4eMNG2OHLmmcNH+IONKZrPwYMeBaxXfql/Q==",
      "frameworks": {
        "DNX,Version=v4.5.1": {
          "dependencies": {
            "Microsoft.AspNet.FeatureModel": "1.0.0-beta4",
            "Microsoft.AspNet.Http": "1.0.0-beta4",
            "Microsoft.AspNet.Http.Interfaces": "1.0.0-beta4",
            "Microsoft.AspNet.Hosting.Interfaces": "1.0.0-beta4",
            "Microsoft.Framework.ConfigurationModel": "1.0.0-beta4",
            "Microsoft.Framework.Logging": "1.0.0-beta4",
            "Microsoft.Net.Http.Server": "1.0.0-beta4",
            "Microsoft.Net.WebSocketAbstractions": "1.0.0-beta4"
          },
          "frameworkAssemblies": [
            "mscorlib",
            "System",
            "System.Core",
            "Microsoft.CSharp"
          ],
          "runtimeAssemblies": [
            "lib/dnx451/Microsoft.AspNet.Server.WebListener.dll"
          ],
          "compileAssemblies": [
            "lib/dnx451/Microsoft.AspNet.Server.WebListener.dll"
          ]
        }
      },
      "files": [
        "Microsoft.AspNet.Server.WebListener.1.0.0-beta4.nupkg",
        "Microsoft.AspNet.Server.WebListener.1.0.0-beta4.nupkg.sha512",
        "Microsoft.AspNet.Server.WebListener.nuspec",
        "lib/dnx451/Microsoft.AspNet.Server.WebListener.dll",
        "lib/dnx451/Microsoft.AspNet.Server.WebListener.xml",
        "lib/dnxcore50/Microsoft.AspNet.Server.WebListener.dll",
        "lib/dnxcore50/Microsoft.AspNet.Server.WebListener.xml"
      ]
    },
    "Microsoft.AspNet.StaticFiles/1.0.0-beta4": {
      "serviceable": true,
      "sha": "jWxWQB8uTGOyVddlxP0kloTYtaQqnzUg+kMgUcNir4l58FbSTymbVTczOqjuy3Kdt3xy9nh/+kKGWpkCc3xf8g==",
      "frameworks": {
        "DNX,Version=v4.5.1": {
          "dependencies": {
            "Microsoft.AspNet.Http.Extensions": "1.0.0-beta4",
            "Microsoft.AspNet.Http.Interfaces": "1.0.0-beta4",
            "Microsoft.AspNet.FileProviders.Interfaces": "1.0.0-beta4",
            "Microsoft.AspNet.Hosting.Interfaces": "1.0.0-beta4",
            "Microsoft.Framework.Logging": "1.0.0-beta4",
            "Microsoft.Framework.WebEncoders": "1.0.0-beta4"
          },
          "frameworkAssemblies": [
            "mscorlib",
            "System",
            "System.Core",
            "Microsoft.CSharp"
          ],
          "runtimeAssemblies": [
            "lib/dnx451/Microsoft.AspNet.StaticFiles.dll"
          ],
          "compileAssemblies": [
            "lib/dnx451/Microsoft.AspNet.StaticFiles.dll"
          ]
        }
      },
      "files": [
        "Microsoft.AspNet.StaticFiles.1.0.0-beta4.nupkg",
        "Microsoft.AspNet.StaticFiles.1.0.0-beta4.nupkg.sha512",
        "Microsoft.AspNet.StaticFiles.nuspec",
        "lib/dnx451/Microsoft.AspNet.StaticFiles.dll",
        "lib/dnx451/Microsoft.AspNet.StaticFiles.xml",
        "lib/dnxcore50/Microsoft.AspNet.StaticFiles.dll",
        "lib/dnxcore50/Microsoft.AspNet.StaticFiles.xml"
      ]
    },
    "Microsoft.AspNet.WebUtilities/1.0.0-beta4": {
      "serviceable": true,
      "sha": "EZJruvBXvVN78gAuL1Ei8HSgBfS9HvU/CiE4MjicXwdzHwyv+HZAvReDmGeWa+UaIW8kmmM4LzNAE8uEBjeQXA==",
      "frameworks": {
        "DNX,Version=v4.5.1": {
          "dependencies": {
            "Microsoft.Framework.WebEncoders.Core": "1.0.0-beta4"
          },
          "frameworkAssemblies": [
            "mscorlib",
            "System",
            "System.Core",
            "Microsoft.CSharp"
          ],
          "runtimeAssemblies": [
            "lib/dnx451/Microsoft.AspNet.WebUtilities.dll"
          ],
          "compileAssemblies": [
            "lib/dnx451/Microsoft.AspNet.WebUtilities.dll"
          ]
        }
      },
      "files": [
        "Microsoft.AspNet.WebUtilities.1.0.0-beta4.nupkg",
        "Microsoft.AspNet.WebUtilities.1.0.0-beta4.nupkg.sha512",
        "Microsoft.AspNet.WebUtilities.nuspec",
        "lib/dnx451/Microsoft.AspNet.WebUtilities.dll",
        "lib/dnx451/Microsoft.AspNet.WebUtilities.xml",
        "lib/dnxcore50/Microsoft.AspNet.WebUtilities.dll",
        "lib/dnxcore50/Microsoft.AspNet.WebUtilities.xml"
      ]
    },
    "Microsoft.Framework.Caching.Interfaces/1.0.0-beta4": {
      "serviceable": true,
      "sha": "46cDLfehLNidWL55zPvLOinR/G3Z/hPtr6memnVenrt2BNPWmqujeXQaMyfklsYblxzeMhoE1ZhYsNuQdvj8zg==",
      "frameworks": {
        "DNX,Version=v4.5.1": {
          "dependencies": {},
          "frameworkAssemblies": [
            "mscorlib",
            "System",
            "System.Core",
            "Microsoft.CSharp"
          ],
          "runtimeAssemblies": [
            "lib/dnx451/Microsoft.Framework.Caching.Interfaces.dll"
          ],
          "compileAssemblies": [
            "lib/dnx451/Microsoft.Framework.Caching.Interfaces.dll"
          ]
        }
      },
      "files": [
        "Microsoft.Framework.Caching.Interfaces.1.0.0-beta4.nupkg",
        "Microsoft.Framework.Caching.Interfaces.1.0.0-beta4.nupkg.sha512",
        "Microsoft.Framework.Caching.Interfaces.nuspec",
        "lib/dnx451/Microsoft.Framework.Caching.Interfaces.dll",
        "lib/dnx451/Microsoft.Framework.Caching.Interfaces.xml",
        "lib/dnxcore50/Microsoft.Framework.Caching.Interfaces.dll",
        "lib/dnxcore50/Microsoft.Framework.Caching.Interfaces.xml",
        "lib/net45/Microsoft.Framework.Caching.Interfaces.dll",
        "lib/net45/Microsoft.Framework.Caching.Interfaces.xml"
      ]
    },
    "Microsoft.Framework.ConfigurationModel/1.0.0-beta4": {
      "serviceable": true,
      "sha": "VD5MhmQRhYVfxyDs1fyruPTj3pYwLMV5dXJkPUVg1KKbJ9qr/tEn3frJA1NN1jdeVBt1RrW5FXr+wWG9YoO9Yg==",
      "frameworks": {
        "DNX,Version=v4.5.1": {
          "dependencies": {
            "Microsoft.Framework.ConfigurationModel.Interfaces": "1.0.0-beta4",
            "Microsoft.Framework.Runtime.Interfaces": "1.0.0-beta4"
          },
          "frameworkAssemblies": [
            "mscorlib",
            "System",
            "System.Core",
            "Microsoft.CSharp"
          ],
          "runtimeAssemblies": [
            "lib/dnx451/Microsoft.Framework.ConfigurationModel.dll"
          ],
          "compileAssemblies": [
            "lib/dnx451/Microsoft.Framework.ConfigurationModel.dll"
          ]
        }
      },
      "files": [
        "Microsoft.Framework.ConfigurationModel.1.0.0-beta4.nupkg",
        "Microsoft.Framework.ConfigurationModel.1.0.0-beta4.nupkg.sha512",
        "Microsoft.Framework.ConfigurationModel.nuspec",
        "lib/dnx451/Microsoft.Framework.ConfigurationModel.dll",
        "lib/dnx451/Microsoft.Framework.ConfigurationModel.xml",
        "lib/dnxcore50/Microsoft.Framework.ConfigurationModel.dll",
        "lib/dnxcore50/Microsoft.Framework.ConfigurationModel.xml",
        "lib/net45/Microsoft.Framework.ConfigurationModel.dll",
        "lib/net45/Microsoft.Framework.ConfigurationModel.xml",
        "lib/portable-net451+win81+wpa81/Microsoft.Framework.ConfigurationModel.dll",
        "lib/portable-net451+win81+wpa81/Microsoft.Framework.ConfigurationModel.xml"
      ]
    },
    "Microsoft.Framework.ConfigurationModel.Interfaces/1.0.0-beta4": {
      "serviceable": true,
      "sha": "lU9+gyEz+jSeR+QsZxZtDf0U2DS/pl3I8/m7YeKjHMnjqoxUKFbSOpzegll7bhq0Alw7/8gF2Byrcy+PlzRc/g==",
      "frameworks": {
        "DNX,Version=v4.5.1": {
          "dependencies": {},
          "frameworkAssemblies": [
            "mscorlib",
            "System",
            "System.Core",
            "Microsoft.CSharp"
          ],
          "runtimeAssemblies": [
            "lib/dnx451/Microsoft.Framework.ConfigurationModel.Interfaces.dll"
          ],
          "compileAssemblies": [
            "lib/dnx451/Microsoft.Framework.ConfigurationModel.Interfaces.dll"
          ]
        }
      },
      "files": [
        "Microsoft.Framework.ConfigurationModel.Interfaces.1.0.0-beta4.nupkg",
        "Microsoft.Framework.ConfigurationModel.Interfaces.1.0.0-beta4.nupkg.sha512",
        "Microsoft.Framework.ConfigurationModel.Interfaces.nuspec",
        "lib/dnx451/Microsoft.Framework.ConfigurationModel.Interfaces.dll",
        "lib/dnx451/Microsoft.Framework.ConfigurationModel.Interfaces.xml",
        "lib/dnxcore50/Microsoft.Framework.ConfigurationModel.Interfaces.dll",
        "lib/dnxcore50/Microsoft.Framework.ConfigurationModel.Interfaces.xml",
        "lib/net45/Microsoft.Framework.ConfigurationModel.Interfaces.dll",
        "lib/net45/Microsoft.Framework.ConfigurationModel.Interfaces.xml",
        "lib/portable-net451+win81+wpa81/Microsoft.Framework.ConfigurationModel.Interfaces.dll",
        "lib/portable-net451+win81+wpa81/Microsoft.Framework.ConfigurationModel.Interfaces.xml"
      ]
    },
    "Microsoft.Framework.DependencyInjection/1.0.0-beta4": {
      "serviceable": true,
      "sha": "PVzGSHq2lgQE4/Bje+lL7UNcj/ADVimsuAA10ACtA3qcLk0DkhgrXJsSMRyFBAv2vqvDXFTE2cLKHcsckWbSQw==",
      "frameworks": {
        "DNX,Version=v4.5.1": {
          "dependencies": {
            "Microsoft.Framework.ConfigurationModel": "1.0.0-beta4",
            "Microsoft.Framework.DependencyInjection.Interfaces": "1.0.0-beta4"
          },
          "frameworkAssemblies": [
            "mscorlib",
            "System",
            "System.Core",
            "Microsoft.CSharp"
          ],
          "runtimeAssemblies": [
            "lib/dnx451/Microsoft.Framework.DependencyInjection.dll"
          ],
          "compileAssemblies": [
            "lib/dnx451/Microsoft.Framework.DependencyInjection.dll"
          ]
        }
      },
      "files": [
        "Microsoft.Framework.DependencyInjection.1.0.0-beta4.nupkg",
        "Microsoft.Framework.DependencyInjection.1.0.0-beta4.nupkg.sha512",
        "Microsoft.Framework.DependencyInjection.nuspec",
        "lib/dnx451/Microsoft.Framework.DependencyInjection.dll",
        "lib/dnx451/Microsoft.Framework.DependencyInjection.xml",
        "lib/dnxcore50/Microsoft.Framework.DependencyInjection.dll",
        "lib/dnxcore50/Microsoft.Framework.DependencyInjection.xml",
        "lib/net45/Microsoft.Framework.DependencyInjection.dll",
        "lib/net45/Microsoft.Framework.DependencyInjection.xml",
        "lib/portable-net451+win81+wpa81/Microsoft.Framework.DependencyInjection.dll",
        "lib/portable-net451+win81+wpa81/Microsoft.Framework.DependencyInjection.xml"
      ]
    },
    "Microsoft.Framework.DependencyInjection.Interfaces/1.0.0-beta4": {
      "serviceable": true,
      "sha": "qbBGymgVdlrJZhJFg+35JaA0Tp8DYeFrDwv1Q3Di9hRWLZ3rAE7bvsnP+fmuo0XGlZDVXfGjINvtryFPyoQ58g==",
      "frameworks": {
        "DNX,Version=v4.5.1": {
          "dependencies": {},
          "frameworkAssemblies": [
            "mscorlib",
            "System",
            "System.Core",
            "Microsoft.CSharp"
          ],
          "runtimeAssemblies": [
            "lib/dnx451/Microsoft.Framework.DependencyInjection.Interfaces.dll"
          ],
          "compileAssemblies": [
            "lib/dnx451/Microsoft.Framework.DependencyInjection.Interfaces.dll"
          ]
        }
      },
      "files": [
        "Microsoft.Framework.DependencyInjection.Interfaces.1.0.0-beta4.nupkg",
        "Microsoft.Framework.DependencyInjection.Interfaces.1.0.0-beta4.nupkg.sha512",
        "Microsoft.Framework.DependencyInjection.Interfaces.nuspec",
        "lib/dnx451/Microsoft.Framework.DependencyInjection.Interfaces.dll",
        "lib/dnx451/Microsoft.Framework.DependencyInjection.Interfaces.xml",
        "lib/dnxcore50/Microsoft.Framework.DependencyInjection.Interfaces.dll",
        "lib/dnxcore50/Microsoft.Framework.DependencyInjection.Interfaces.xml",
        "lib/net45/Microsoft.Framework.DependencyInjection.Interfaces.dll",
        "lib/net45/Microsoft.Framework.DependencyInjection.Interfaces.xml",
        "lib/portable-net451+win81+wpa81/Microsoft.Framework.DependencyInjection.Interfaces.dll",
        "lib/portable-net451+win81+wpa81/Microsoft.Framework.DependencyInjection.Interfaces.xml"
      ]
    },
    "Microsoft.Framework.Logging/1.0.0-beta4": {
      "serviceable": true,
      "sha": "aFlG7h0WMJn+TgKIqoDkXh6LOquu7e6HKCOSrLvAaOp93qOWycz0kNQ0oGXVHYP6QebAjHgz9UffcqeCqeWN1Q==",
      "frameworks": {
        "DNX,Version=v4.5.1": {
          "dependencies": {
            "Microsoft.Framework.DependencyInjection.Interfaces": "1.0.0-beta4",
            "Microsoft.Framework.Logging.Interfaces": "1.0.0-beta4"
          },
          "frameworkAssemblies": [
            "System.Collections.Concurrent",
            "mscorlib",
            "System",
            "System.Core",
            "Microsoft.CSharp"
          ],
          "runtimeAssemblies": [
            "lib/dnx451/Microsoft.Framework.Logging.dll"
          ],
          "compileAssemblies": [
            "lib/dnx451/Microsoft.Framework.Logging.dll"
          ]
        }
      },
      "files": [
        "Microsoft.Framework.Logging.1.0.0-beta4.nupkg",
        "Microsoft.Framework.Logging.1.0.0-beta4.nupkg.sha512",
        "Microsoft.Framework.Logging.nuspec",
        "lib/dnx451/Microsoft.Framework.Logging.dll",
        "lib/dnx451/Microsoft.Framework.Logging.xml",
        "lib/dnxcore50/Microsoft.Framework.Logging.dll",
        "lib/dnxcore50/Microsoft.Framework.Logging.xml",
        "lib/net45/Microsoft.Framework.Logging.dll",
        "lib/net45/Microsoft.Framework.Logging.xml",
        "lib/portable-net451+win81+wpa81/Microsoft.Framework.Logging.dll",
        "lib/portable-net451+win81+wpa81/Microsoft.Framework.Logging.xml"
      ]
    },
    "Microsoft.Framework.Logging.Interfaces/1.0.0-beta4": {
      "serviceable": true,
      "sha": "OK8v8gpDYfH01Gy1tvT4mS1r6ZWMAz1HXo872v7pswishE6oyTQwC44BpYM+Obq8GW7E6Ai/Vj3wE/CuLUDJGA==",
      "frameworks": {
        "DNX,Version=v4.5.1": {
          "dependencies": {},
          "frameworkAssemblies": [
            "mscorlib",
            "System",
            "System.Core",
            "Microsoft.CSharp"
          ],
          "runtimeAssemblies": [
            "lib/dnx451/Microsoft.Framework.Logging.Interfaces.dll"
          ],
          "compileAssemblies": [
            "lib/dnx451/Microsoft.Framework.Logging.Interfaces.dll"
          ]
        }
      },
      "files": [
        "Microsoft.Framework.Logging.Interfaces.1.0.0-beta4.nupkg",
        "Microsoft.Framework.Logging.Interfaces.1.0.0-beta4.nupkg.sha512",
        "Microsoft.Framework.Logging.Interfaces.nuspec",
        "lib/dnx451/Microsoft.Framework.Logging.Interfaces.dll",
        "lib/dnx451/Microsoft.Framework.Logging.Interfaces.xml",
        "lib/dnxcore50/Microsoft.Framework.Logging.Interfaces.dll",
        "lib/dnxcore50/Microsoft.Framework.Logging.Interfaces.xml",
        "lib/net45/Microsoft.Framework.Logging.Interfaces.dll",
        "lib/net45/Microsoft.Framework.Logging.Interfaces.xml",
        "lib/portable-net451+win81+wpa81/Microsoft.Framework.Logging.Interfaces.dll",
        "lib/portable-net451+win81+wpa81/Microsoft.Framework.Logging.Interfaces.xml"
      ]
    },
    "Microsoft.Framework.OptionsModel/1.0.0-beta4": {
      "serviceable": true,
      "sha": "xjr084yTcmBLI8F3gb+hIEhf+ttanmbCWl54GkMhSH/dU1bqbR2Ts6Ks51kwUaACfNEDNY9zRwblT4of51lA6w==",
      "frameworks": {
        "DNX,Version=v4.5.1": {
          "dependencies": {
            "Microsoft.Framework.ConfigurationModel": "1.0.0-beta4",
            "Microsoft.Framework.DependencyInjection.Interfaces": "1.0.0-beta4"
          },
          "frameworkAssemblies": [
            "mscorlib",
            "System",
            "System.Core",
            "Microsoft.CSharp"
          ],
          "runtimeAssemblies": [
            "lib/dnx451/Microsoft.Framework.OptionsModel.dll"
          ],
          "compileAssemblies": [
            "lib/dnx451/Microsoft.Framework.OptionsModel.dll"
          ]
        }
      },
      "files": [
        "Microsoft.Framework.OptionsModel.1.0.0-beta4.nupkg",
        "Microsoft.Framework.OptionsModel.1.0.0-beta4.nupkg.sha512",
        "Microsoft.Framework.OptionsModel.nuspec",
        "lib/dnx451/Microsoft.Framework.OptionsModel.dll",
        "lib/dnx451/Microsoft.Framework.OptionsModel.xml",
        "lib/dnxcore50/Microsoft.Framework.OptionsModel.dll",
        "lib/dnxcore50/Microsoft.Framework.OptionsModel.xml",
        "lib/net45/Microsoft.Framework.OptionsModel.dll",
        "lib/net45/Microsoft.Framework.OptionsModel.xml",
        "lib/portable-net451+win81+wpa81/Microsoft.Framework.OptionsModel.dll",
        "lib/portable-net451+win81+wpa81/Microsoft.Framework.OptionsModel.xml"
      ]
    },
    "Microsoft.Framework.Runtime.Interfaces/1.0.0-beta4": {
      "serviceable": true,
      "sha": "RrZdqvUm8QbgxnZQuafYGo6NezoKx7VqAfAtHVzoKBm3GSV8xlPh90u1fsGhNCv37xJNk5PuRCa4Mq27ko7pLw==",
      "frameworks": {
        "DNX,Version=v4.5.1": {
          "dependencies": {},
          "frameworkAssemblies": [
            "mscorlib",
            "System",
            "System.Core",
            "Microsoft.CSharp"
          ],
          "runtimeAssemblies": [
            "lib/dnx451/Microsoft.Framework.Runtime.Interfaces.dll"
          ],
          "compileAssemblies": [
            "lib/dnx451/Microsoft.Framework.Runtime.Interfaces.dll"
          ]
        }
      },
      "files": [
        "Microsoft.Framework.Runtime.Interfaces.1.0.0-beta4.nupkg",
        "Microsoft.Framework.Runtime.Interfaces.1.0.0-beta4.nupkg.sha512",
        "Microsoft.Framework.Runtime.Interfaces.nuspec",
        "lib/dnx451/Microsoft.Framework.Runtime.Interfaces.dll",
        "lib/dnx451/Microsoft.Framework.Runtime.Interfaces.xml",
        "lib/dnxcore50/Microsoft.Framework.Runtime.Interfaces.dll",
        "lib/dnxcore50/Microsoft.Framework.Runtime.Interfaces.xml"
      ]
    },
    "Microsoft.Framework.WebEncoders/1.0.0-beta4": {
      "serviceable": true,
      "sha": "DCRv9DtaZB46YXhq4hRHCVsnGN9ESZgTQTaHNJNy+g04nFe2YpB65CPBavtmtF9xNR31jQoVamBJtduNrc9Jhw==",
      "frameworks": {
        "DNX,Version=v4.5.1": {
          "dependencies": {
            "Microsoft.Framework.DependencyInjection.Interfaces": "1.0.0-beta4",
            "Microsoft.Framework.OptionsModel": "1.0.0-beta4",
            "Microsoft.Framework.WebEncoders.Core": "1.0.0-beta4"
          },
          "frameworkAssemblies": [
            "mscorlib",
            "System",
            "System.Core",
            "Microsoft.CSharp"
          ],
          "runtimeAssemblies": [
            "lib/dnx451/Microsoft.Framework.WebEncoders.dll"
          ],
          "compileAssemblies": [
            "lib/dnx451/Microsoft.Framework.WebEncoders.dll"
          ]
        }
      },
      "files": [
        "Microsoft.Framework.WebEncoders.1.0.0-beta4.nupkg",
        "Microsoft.Framework.WebEncoders.1.0.0-beta4.nupkg.sha512",
        "Microsoft.Framework.WebEncoders.nuspec",
        "lib/dnx451/Microsoft.Framework.WebEncoders.dll",
        "lib/dnx451/Microsoft.Framework.WebEncoders.xml",
        "lib/dnxcore50/Microsoft.Framework.WebEncoders.dll",
        "lib/dnxcore50/Microsoft.Framework.WebEncoders.xml",
        "lib/net45/Microsoft.Framework.WebEncoders.dll",
        "lib/net45/Microsoft.Framework.WebEncoders.xml"
      ]
    },
    "Microsoft.Framework.WebEncoders.Core/1.0.0-beta4": {
      "serviceable": true,
      "sha": "pJqTs8EUFMcQmkEVYKZiN0hDk5IpHHVasesEa/hgD99a+uENKc7oSOnKbJ+PypatsBTkj/IzuxybJUCKlBLiew==",
      "frameworks": {
        "DNX,Version=v4.5.1": {
          "dependencies": {},
          "frameworkAssemblies": [
            "mscorlib",
            "System",
            "System.Core",
            "Microsoft.CSharp"
          ],
          "runtimeAssemblies": [
            "lib/dnx451/Microsoft.Framework.WebEncoders.Core.dll"
          ],
          "compileAssemblies": [
            "lib/dnx451/Microsoft.Framework.WebEncoders.Core.dll"
          ]
        }
      },
      "files": [
        "Microsoft.Framework.WebEncoders.Core.1.0.0-beta4.nupkg",
        "Microsoft.Framework.WebEncoders.Core.1.0.0-beta4.nupkg.sha512",
        "Microsoft.Framework.WebEncoders.Core.nuspec",
        "lib/dnx451/Microsoft.Framework.WebEncoders.Core.dll",
        "lib/dnx451/Microsoft.Framework.WebEncoders.Core.xml",
        "lib/dnxcore50/Microsoft.Framework.WebEncoders.Core.dll",
        "lib/dnxcore50/Microsoft.Framework.WebEncoders.Core.xml",
        "lib/net45/Microsoft.Framework.WebEncoders.Core.dll",
        "lib/net45/Microsoft.Framework.WebEncoders.Core.xml"
      ]
    },
    "Microsoft.Net.Http.Headers/1.0.0-beta4": {
      "serviceable": true,
      "sha": "dhN5q9MbljcAqWTv1GIpeAzB8HB7l9YTrN+zl/KXUj8OP4cTd2LZ7qeZ0tqDHkxOD+GyZwi/SnbqztKSjTnVOg==",
      "frameworks": {
        "DNX,Version=v4.5.1": {
          "dependencies": {},
          "frameworkAssemblies": [
            "mscorlib",
            "System",
            "System.Core",
            "Microsoft.CSharp"
          ],
          "runtimeAssemblies": [
            "lib/dnx451/Microsoft.Net.Http.Headers.dll"
          ],
          "compileAssemblies": [
            "lib/dnx451/Microsoft.Net.Http.Headers.dll"
          ]
        }
      },
      "files": [
        "Microsoft.Net.Http.Headers.1.0.0-beta4.nupkg",
        "Microsoft.Net.Http.Headers.1.0.0-beta4.nupkg.sha512",
        "Microsoft.Net.Http.Headers.nuspec",
        "lib/dnx451/Microsoft.Net.Http.Headers.dll",
        "lib/dnx451/Microsoft.Net.Http.Headers.xml",
        "lib/dnxcore50/Microsoft.Net.Http.Headers.dll",
        "lib/dnxcore50/Microsoft.Net.Http.Headers.xml",
        "lib/net45/Microsoft.Net.Http.Headers.dll",
        "lib/net45/Microsoft.Net.Http.Headers.xml"
      ]
    },
    "Microsoft.Net.Http.Server/1.0.0-beta4": {
      "serviceable": true,
      "sha": "WFAzpWGbe0JHu6pSZdbxprui3XubKJZzrs+zUKMCc77I1DCAuHLY5ZTcZBy5u0mMC1S8tDnED3o5J8gXM3Y1Mg==",
      "frameworks": {
        "DNX,Version=v4.5.1": {
          "dependencies": {
            "Microsoft.Framework.Logging": "1.0.0-beta4",
            "Microsoft.Net.WebSockets": "1.0.0-beta4"
          },
          "frameworkAssemblies": [
            "mscorlib",
            "System",
            "System.Core",
            "Microsoft.CSharp"
          ],
          "runtimeAssemblies": [
            "lib/dnx451/Microsoft.Net.Http.Server.dll"
          ],
          "compileAssemblies": [
            "lib/dnx451/Microsoft.Net.Http.Server.dll"
          ]
        }
      },
      "files": [
        "Microsoft.Net.Http.Server.1.0.0-beta4.nupkg",
        "Microsoft.Net.Http.Server.1.0.0-beta4.nupkg.sha512",
        "Microsoft.Net.Http.Server.nuspec",
        "lib/dnx451/Microsoft.Net.Http.Server.dll",
        "lib/dnx451/Microsoft.Net.Http.Server.xml",
        "lib/dnxcore50/Microsoft.Net.Http.Server.dll",
        "lib/dnxcore50/Microsoft.Net.Http.Server.xml",
        "lib/net45/Microsoft.Net.Http.Server.dll",
        "lib/net45/Microsoft.Net.Http.Server.xml"
      ]
    },
    "Microsoft.Net.WebSocketAbstractions/1.0.0-beta4": {
      "serviceable": true,
      "sha": "NmW6dLxY5zu7Dyb12PttLWje8wSjxrlBeUovtchbJfZe/OTRw5FFe/Z6yytLuWT3UcA+siGVv2t/br2xXkDqYg==",
      "frameworks": {
        "DNX,Version=v4.5.1": {
          "dependencies": {},
          "frameworkAssemblies": [
            "mscorlib",
            "System",
            "System.Core",
            "Microsoft.CSharp"
          ],
          "runtimeAssemblies": [
            "lib/net45/Microsoft.Net.WebSocketAbstractions.dll"
          ],
          "compileAssemblies": [
            "lib/net45/Microsoft.Net.WebSocketAbstractions.dll"
          ]
        }
      },
      "files": [
        "Microsoft.Net.WebSocketAbstractions.1.0.0-beta4.nupkg",
        "Microsoft.Net.WebSocketAbstractions.1.0.0-beta4.nupkg.sha512",
        "Microsoft.Net.WebSocketAbstractions.nuspec",
        "lib/dnxcore50/Microsoft.Net.WebSocketAbstractions.dll",
        "lib/dnxcore50/Microsoft.Net.WebSocketAbstractions.xml",
        "lib/net45/Microsoft.Net.WebSocketAbstractions.dll",
        "lib/net45/Microsoft.Net.WebSocketAbstractions.xml"
      ]
    },
    "Microsoft.Net.WebSockets/1.0.0-beta4": {
      "serviceable": true,
      "sha": "//ixPg4sfxzF6O+t6cwciAcAV/fowB0HY+DrvQvc1J79MeGbwWATaUsPjdnAzqhfbrXPImfN1s1hQNOa02s79A==",
      "frameworks": {
        "DNX,Version=v4.5.1": {
          "dependencies": {
            "Microsoft.Net.WebSocketAbstractions": "1.0.0-beta4"
          },
          "frameworkAssemblies": [
            "mscorlib",
            "System",
            "System.Core",
            "Microsoft.CSharp"
          ],
          "runtimeAssemblies": [
            "lib/net45/Microsoft.Net.WebSockets.dll"
          ],
          "compileAssemblies": [
            "lib/net45/Microsoft.Net.WebSockets.dll"
          ]
        }
      },
      "files": [
        "Microsoft.Net.WebSockets.1.0.0-beta4.nupkg",
        "Microsoft.Net.WebSockets.1.0.0-beta4.nupkg.sha512",
        "Microsoft.Net.WebSockets.nuspec",
        "lib/dnxcore50/Microsoft.Net.WebSockets.dll",
        "lib/dnxcore50/Microsoft.Net.WebSockets.xml",
        "lib/net45/Microsoft.Net.WebSockets.dll",
        "lib/net45/Microsoft.Net.WebSockets.xml"
      ]
    },
    "Newtonsoft.Json/6.0.6": {
      "serviceable": false,
      "sha": "w26uZNyCG5VeoKiEOJ4+9/o8koSofLKwHl7WLreIcp0U6r57L7WiRXmjp8MTKFw6dYNZ9AE0lw69WYbIhUsU9Q==",
      "frameworks": {
        "DNX,Version=v4.5.1": {
          "dependencies": {},
          "frameworkAssemblies": [],
          "runtimeAssemblies": [
            "lib/net45/Newtonsoft.Json.dll"
          ],
          "compileAssemblies": [
            "lib/net45/Newtonsoft.Json.dll"
          ]
        }
      },
      "files": [
        "Newtonsoft.Json.6.0.6.nupkg",
        "Newtonsoft.Json.6.0.6.nupkg.sha512",
        "Newtonsoft.Json.nuspec",
        "lib/net20/Newtonsoft.Json.dll",
        "lib/net20/Newtonsoft.Json.xml",
        "lib/net35/Newtonsoft.Json.dll",
        "lib/net35/Newtonsoft.Json.xml",
        "lib/net40/Newtonsoft.Json.dll",
        "lib/net40/Newtonsoft.Json.xml",
        "lib/net45/Newtonsoft.Json.dll",
        "lib/net45/Newtonsoft.Json.xml",
        "lib/netcore45/Newtonsoft.Json.dll",
        "lib/netcore45/Newtonsoft.Json.xml",
        "lib/portable-net40+sl5+wp80+win8+wpa81/Newtonsoft.Json.dll",
        "lib/portable-net40+sl5+wp80+win8+wpa81/Newtonsoft.Json.xml",
        "lib/portable-net45+wp80+win8+wpa81+aspnetcore50/Newtonsoft.Json.dll",
        "lib/portable-net45+wp80+win8+wpa81+aspnetcore50/Newtonsoft.Json.xml",
        "tools/install.ps1"
      ]
    }
  }
}